{
  "project_info": {
    "project_number": "554957843835",
    "firebase_url": "https://fishlyzer-default-rtdb.firebaseio.com",
    "project_id": "fishlyzer",
    "storage_bucket": "fishlyzer.appspot.com"
  },
  "client": [
    {
      "client_info": {
        "mobilesdk_app_id": "1:554957843835:android:421dbc6cc533b07cc4e1de",
        "android_client_info": {
          "package_name": "com.company.fishlyzer"
        }
      },
      "oauth_client": [
        {
          "client_id": "554957843835-kk6esrlg5k2omd9nb90kvbl3mc8jm0hj.apps.googleusercontent.com",
          "client_type": 1,
          "android_info": {
            "package_name": "com.company.fishlyzer",
            "certificate_hash": "e60f698c92aa9f0ccc45c29d0b52702a387d86bb"
          }
        },
        {
          "client_id": "554957843835-bv4ba2hi8or5h2pdt41oemu0t0t4rip8.apps.googleusercontent.com",
          "client_type": 3
        }
      ],
      "api_key": [
        {
          "current_key": "AIzaSyAdNdy7CRC4xsYBu_or7CUE8l0_v14vTaM"
        }
      ],
      "services": {
        "appinvite_service": {
          "other_platform_oauth_client": [
            {
              "client_id": "554957843835-bv4ba2hi8or5h2pdt41oemu0t0t4rip8.apps.googleusercontent.com",
              "client_type": 3
            }
          ]
        }
      }
    }
  ],
  "configuration_version": "1"
}